>-- 2016-09-21T14:55:54Z start_trace
>-> 2016-09-21T14:55:57Z df
Filesystem           1K-blocks      Used Available Use% Mounted on
/dev/root                66432     66432         0 100% /
none                    439620         0    439620   0% /dev
tmpfs                    32768       928     31840   3% /tmp
tmpfs                    32768       928     31840   3% /var
ubi0:datafs_c           286256     16216    265204   6% /flash
/dev/sda1            480587984    590984 455561416   0% /Record
>-<
>-> 2016-09-21T14:55:59Z cpu
cpu  277424 26235 633887 31601892 272341 210698 568874 0 0 0
cpu0 152421 9800 385894 15238123 208932 164311 544784 0 0 0
cpu1 125003 16435 247993 16363768 63409 46386 24089 0 0 0
>-<
>-> 2016-09-21T14:56:01Z meminfo
MemTotal:         962212 kB
MemFree:           69612 kB
MemAvailable:     672920 kB
Buffers:           20892 kB
Cached:           584220 kB
SwapCached:            0 kB
Active:           208928 kB
Inactive:         507800 kB
Active(anon):     112124 kB
Inactive(anon):      448 kB
Active(file):      96804 kB
Inactive(file):   507352 kB
Unevictable:           0 kB
Mlocked:               0 kB
HighTotal:        352256 kB
HighFree:          54900 kB
LowTotal:         609956 kB
LowFree:           14712 kB
SwapTotal:             0 kB
SwapFree:              0 kB
Dirty:             14500 kB
Writeback:             0 kB
AnonPages:        111640 kB
Mapped:            45084 kB
Shmem:               932 kB
Slab:              36844 kB
SReclaimable:      13228 kB
SUnreclaim:        23616 kB
KernelStack:        3536 kB
PageTables:        21396 kB
NFS_Unstable:          0 kB
Bounce:                0 kB
WritebackTmp:          0 kB
CommitLimit:      481104 kB
Committed_AS:    2093860 kB
VmallocTotal:     385024 kB
VmallocUsed:      201416 kB
VmallocChunk:     154736 kB
CmaTotal:          16384 kB
CmaFree:            3612 kB
>-<
>-> 2016-09-21T14:56:03Z loadavg
0.12 0.12 0.14 1/442 2674
>-<
>-> 2016-09-21T14:56:05Z df
Filesystem           1K-blocks      Used Available Use% Mounted on
/dev/root                66432     66432         0 100% /
none                    439620         0    439620   0% /dev
tmpfs                    32768       928     31840   3% /tmp
tmpfs                    32768       928     31840   3% /var
ubi0:datafs_c           286256     16216    265204   6% /flash
/dev/sda1            480587984    595608 455556792   0% /Record
>-<
>-> 2016-09-21T14:56:07Z cpu
cpu  277446 26236 633940 31603362 272346 210709 568901 0 0 0
cpu0 152434 9800 385925 15238835 208937 164319 544809 0 0 0
cpu1 125012 16436 248014 16364527 63409 46389 24091 0 0 0
>-<
>-> 2016-09-21T14:56:09Z meminfo
MemTotal:         962212 kB
MemFree:           64804 kB
MemAvailable:     672760 kB
Buffers:           20892 kB
Cached:           588800 kB
SwapCached:            0 kB
Active:           208944 kB
Inactive:         512300 kB
Active(anon):     112076 kB
Inactive(anon):      448 kB
Active(file):      96868 kB
Inactive(file):   511852 kB
Unevictable:           0 kB
Mlocked:               0 kB
HighTotal:        352256 kB
HighFree:          50220 kB
LowTotal:         609956 kB
LowFree:           14584 kB
SwapTotal:             0 kB
SwapFree:              0 kB
Dirty:              4344 kB
Writeback:             0 kB
AnonPages:        111640 kB
Mapped:            45084 kB
Shmem:               936 kB
Slab:              36988 kB
SReclaimable:      13312 kB
SUnreclaim:        23676 kB
KernelStack:        3536 kB
PageTables:        21396 kB
NFS_Unstable:          0 kB
Bounce:                0 kB
WritebackTmp:          0 kB
CommitLimit:      481104 kB
Committed_AS:    2093536 kB
VmallocTotal:     385024 kB
VmallocUsed:      201416 kB
VmallocChunk:     154736 kB
CmaTotal:          16384 kB
CmaFree:            3612 kB
>-<
>-> 2016-09-21T14:56:11Z loadavg
0.11 0.12 0.14 1/442 2686
>-<
>-> 2016-09-21T14:56:13Z df
Filesystem           1K-blocks      Used Available Use% Mounted on
/dev/root                66432     66432         0 100% /
none                    439620         0    439620   0% /dev
tmpfs                    32768       932     31836   3% /tmp
tmpfs                    32768       932     31836   3% /var
ubi0:datafs_c           286256     16216    265204   6% /flash
/dev/sda1            480587984    600272 455552128   0% /Record
>-<
>-> 2016-09-21T14:56:15Z cpu
cpu  277460 26237 633992 31604851 272366 210718 568928 0 0 0
cpu0 152439 9801 385955 15239556 208951 164327 544834 0 0 0
cpu1 125020 16436 248037 16365294 63414 46391 24093 0 0 0
>-<
>-> 2016-09-21T14:56:17Z meminfo
MemTotal:         962212 kB
MemFree:           59848 kB
MemAvailable:     672632 kB
Buffers:           20892 kB
Cached:           593520 kB
SwapCached:            0 kB
Active:           209100 kB
Inactive:         516984 kB
Active(anon):     112168 kB
Inactive(anon):      448 kB
Active(file):      96932 kB
Inactive(file):   516536 kB
Unevictable:           0 kB
Mlocked:               0 kB
HighTotal:        352256 kB
HighFree:          45480 kB
LowTotal:         609956 kB
LowFree:           14368 kB
SwapTotal:             0 kB
SwapFree:              0 kB
Dirty:              9064 kB
Writeback:             0 kB
AnonPages:        111676 kB
Mapped:            45084 kB
Shmem:               940 kB
Slab:              37032 kB
SReclaimable:      13392 kB
SUnreclaim:        23640 kB
KernelStack:        3536 kB
PageTables:        21396 kB
NFS_Unstable:          0 kB
Bounce:                0 kB
WritebackTmp:          0 kB
CommitLimit:      481104 kB
Committed_AS:    2092772 kB
VmallocTotal:     385024 kB
VmallocUsed:      201416 kB
VmallocChunk:     154736 kB
CmaTotal:          16384 kB
CmaFree:            3612 kB
>-<
>-> 2016-09-21T14:56:19Z loadavg
0.24 0.15 0.15 1/442 2700
>-<
>-> 2016-09-21T14:56:26Z df
Filesystem           1K-blocks      Used Available Use% Mounted on
/dev/root                66432     66432         0 100% /
none                    439620         0    439620   0% /dev
tmpfs                    32768       944     31824   3% /tmp
tmpfs                    32768       944     31824   3% /var
ubi0:datafs_c           286256     16216    265204   6% /flash
/dev/sda1            480587984    607792 455544608   0% /Record
>-<
>-> 2016-09-21T14:56:28Z cpu
cpu  277490 26240 634069 31607241 272377 210735 568968 0 0 0
cpu0 152452 9802 386001 15240715 208962 164340 544874 0 0 0
cpu1 125038 16438 248067 16366526 63414 46395 24094 0 0 0
>-<
>-> 2016-09-21T14:56:30Z meminfo
MemTotal:         962212 kB
MemFree:           52260 kB
MemAvailable:     672572 kB
Buffers:           20892 kB
Cached:           600964 kB
SwapCached:            0 kB
Active:           209140 kB
Inactive:         524304 kB
Active(anon):     112124 kB
Inactive(anon):      448 kB
Active(file):      97016 kB
Inactive(file):   523856 kB
Unevictable:           0 kB
Mlocked:               0 kB
HighTotal:        352256 kB
HighFree:          37920 kB
LowTotal:         609956 kB
LowFree:           14340 kB
SwapTotal:             0 kB
SwapFree:              0 kB
Dirty:             16500 kB
Writeback:             0 kB
AnonPages:        111676 kB
Mapped:            45084 kB
Shmem:               948 kB
Slab:              37136 kB
SReclaimable:      13516 kB
SUnreclaim:        23620 kB
KernelStack:        3536 kB
PageTables:        21396 kB
NFS_Unstable:          0 kB
Bounce:                0 kB
WritebackTmp:          0 kB
CommitLimit:      481104 kB
Committed_AS:    2094480 kB
VmallocTotal:     385024 kB
VmallocUsed:      201416 kB
VmallocChunk:     154736 kB
CmaTotal:          16384 kB
CmaFree:            3612 kB
>-<
>-> 2016-09-21T14:56:32Z loadavg
0.20 0.15 0.15 5/442 2710
>-<
>-> 2016-09-21T14:56:34Z df
Filesystem           1K-blocks      Used Available Use% Mounted on
/dev/root                66432     66432         0 100% /
none                    439620         0    439620   0% /dev
tmpfs                    32768       948     31820   3% /tmp
tmpfs                    32768       948     31820   3% /var
ubi0:datafs_c           286256     16216    265204   6% /flash
/dev/sda1            480587984    612408 455539992   0% /Record
>-<
>-> 2016-09-21T14:56:36Z cpu
cpu  277507 26241 634123 31608710 272395 210745 568995 0 0 0
cpu0 152460 9802 386033 15241425 208975 164348 544899 0 0 0
cpu1 125047 16438 248089 16367285 63419 46397 24096 0 0 0
>-<
>-> 2016-09-21T14:56:38Z meminfo
MemTotal:         962212 kB
MemFree:           47436 kB
MemAvailable:     672596 kB
Buffers:           20892 kB
Cached:           605684 kB
SwapCached:            0 kB
Active:           209300 kB
Inactive:         528976 kB
Active(anon):     112208 kB
Inactive(anon):      448 kB
Active(file):      97092 kB
Inactive(file):   528528 kB
Unevictable:           0 kB
Mlocked:               0 kB
HighTotal:        352256 kB
HighFree:          33292 kB
LowTotal:         609956 kB
LowFree:           14144 kB
SwapTotal:             0 kB
SwapFree:              0 kB
Dirty:              3620 kB
Writeback:             0 kB
AnonPages:        111668 kB
Mapped:            45084 kB
Shmem:               956 kB
Slab:              37328 kB
SReclaimable:      13616 kB
SUnreclaim:        23712 kB
KernelStack:        3536 kB
PageTables:        21388 kB
NFS_Unstable:          0 kB
Bounce:                0 kB
WritebackTmp:          0 kB
CommitLimit:      481104 kB
Committed_AS:    2094160 kB
VmallocTotal:     385024 kB
VmallocUsed:      201416 kB
VmallocChunk:     154736 kB
CmaTotal:          16384 kB
CmaFree:            3612 kB
>-<
>-> 2016-09-21T14:56:40Z loadavg
0.17 0.14 0.15 1/442 2724
>-<
